…
Many functions need an app ID to work, for example the following
function which retrieves user review data from an application:

``` r
get_app_reviews(440)
#> # A tibble: 100 × 22
#>    recommendationid language review      timestamp_created   timestamp_updated  
#>    <chr>            <chr>    <chr>       <dttm>              <dttm>             
#>  1 166847493        english  "It was a … 2024-06-07 07:46:14 2024-06-07 07:46:14
#>  2 167445706        english  "Witnessin… 2024-06-15 22:54:19 2024-06-15 22:54:19
#>  3 167057723        english  "So long a… 2024-06-10 03:41:34 2024-06-10 03:41:34
#>  4 166858627        russian  "#FixTf2"   2024-06-07 13:08:08 2024-06-07 13:08:08
#>  5 167665571        english  "Leaving t… 2024-06-19 03:13:21 2024-06-19 03:13:21
#>  6 168896025        russian  "Игра под … 2024-07-03 18:34:04 2024-07-03 18:34:04
#>  7 166920297        russian  "#FixTF2 \… 2024-06-08 10:22:54 2024-06-08 10:22:54
#>  8 167060501        english  "Grew up w… 2024-06-10 04:44:50 2024-06-10 04:44:50
#>  9 167532816        english  "Valve has… 2024-06-17 02:47:55 2024-06-17 02:47:55
#> 10 166847042        english  "This game… 2024-06-07 07:32:21 2024-06-07 07:32:21
#> # ℹ 90 more rows
#> # ℹ 17 more variables: voted_up <lgl>, votes_up <int>, votes_funny <int>,
#> #   weighted_vote_score <dbl>, comment_count <int>, steam_purchase <lgl>,
#> #   received_for_free <lgl>, written_during_early_access <lgl>,
#> #   hidden_in_steam_china <lgl>, steam_china_location <chr>,
#> #   author.steamid <chr>, author.num_games_owned <int>,
#> #   author.num_reviews <int>, author.playtime_forever <int>, …
```
…
