App list — get_app_list • steamr
…
https://store.steampowered.com/charts/topnewreleases/

    See also

    steamspy for a similar approach by the SteamSpy API

    Examples

get_app_list()
#> # A tibble: 225,088 × 2
#>    appid name                 
#>    <int> <chr>                
#>  1     5 Dedicated Server     
#>  2     5 Dedicated Server     
#>  3     7 Steam Client         
#>  4     7 Steam Client         
#>  5     8 winui2               
#>  6     8 winui2               
#>  7    10 Counter-Strike       
#>  8    10 Counter-Strike       
#>  9    20 Team Fortress Classic
#> 10    20 Team Fortress Classic
#> # ℹ 225,078 more rows

# get most played games
get_games_by_ccu()
#> # A tibble: 100 × 4
#>     rank   appid concurrent_in_game peak_in_game
#>    <int>   <int>              <int>        <int>
#>  1     1     730             979102      1460550
#>  2     2     570             576248       600334
#>  3     3 2694490             441001       498966
#>  4     4 2767030             308322       460883
#>  5     5  578080             279189       747601
#>  6     6  252490             138269       144469
#>  7     7  271590             135117       178332
#>  8     8 2923300             116247       129339
#>  9     9 2507950              92733        98930
#> 10    10 1938090              83414       122668
#> # ℹ 90 more rows

# get most popular games of all time
get_most_played_games()
#> # A tibble: 100 × 4
#>     rank   appid last_week_rank peak_in_game
#>    <int>   <int>          <int>        <int>
#>  1     1     730              1      1460230
#>  2     2 2767030             -1       452007
#>  3     3     570              2       618358
#>  4     4  578080              3       750493
#>  5     5  431960              4       118350
#>  6     6 2694490             -1       498966
#>  7     7 1203220              5       298926
#>  8     8 1938090              6       137453
#>  9     9  271590              7       161127
#> 10    10 1172470              8       144354
#> # ℹ 90 more rows
…
