Assets — query_market_assets • steamr
…
    https://wiki.teamfortress.com/wiki/WebAPI/GetAssetPrices

https://wiki.teamfortress.com/wiki/WebAPI/GetAssetClassInfo

    See also

    steamkit_enum to retrieve all currency codes

query_loyalty_rewards for loyalty assets

    Examples

# show asset prices for Team Fortress and all available currencies
get_asset_prices(440)
#> # A tibble: 1,203 × 80
#>    name  date       class classid tags  tag_ids prices.USD prices.GBP prices.EUR
#>    <chr> <date>     <lis> <chr>   <lis> <list>       <int>      <int>      <int>
#>  1 30186 2013-10-09 <df>  211447… <chr> <dbl>         1299       1039       1239
#>  2 341   2010-12-20 <df>  195151  <chr> <dbl>          499        399        475
#>  3 610   2011-09-07 <df>  9240401 <chr> <dbl>          749        599        715
#>  4 5873  2017-09-13 <df>  256945… <chr> <dbl>          249        199        235
#>  5 5082  2012-11-29 <df>  996660… <chr> <dbl>          499        399        475
#>  6 708   2012-01-26 <df>  329141… <chr> <dbl>          499        399        475
#>  7 405   2011-03-17 <df>  148     <chr> <int>           99         79         95
#>  8 30331 2013-12-19 <df>  260681… <chr> <dbl>          749        599        715
#>  9 993   2012-12-20 <df>  107343… <chr> <dbl>          749        599        715
#> 10 571   2011-10-28 <df>  168910… <chr> <dbl>          749        599        715
#> # ℹ 1,193 more rows
#> # ℹ 71 more variables: prices.RUB <int>, prices.BRL <int>, prices.JPY <int>,
#> #   prices.NOK <int>, prices.IDR <int>, prices.MYR <int>, prices.PHP <int>,
#> #   prices.SGD <int>, prices.THB <int>, prices.VND <int>, prices.KRW <int>,
#> #   prices.UAH <int>, prices.MXN <int>, prices.CAD <int>, prices.AUD <int>,
#> #   prices.NZD <int>, prices.PLN <int>, prices.CHF <int>, prices.CNY <int>,
#> #   prices.TWD <int>, prices.HKD <int>, prices.INR <int>, prices.AED <int>, …

# show the same assets, but return only EUR
get_asset_prices(440, currency = "EUR")
#> # A tibble: 1,203 × 8
#>    name  date       class  classid  tags  tag_ids prices.EUR original_prices.EUR
#>    <chr> <date>     <list> <chr>    <lis> <list>       <int>               <int>
#>  1 30186 2013-10-09 <df>   2114477… <chr> <dbl>         1239                  NA
#>  2 341   2010-12-20 <df>   195151   <chr> <dbl>          475                  NA
#>  3 610   2011-09-07 <df>   9240401  <chr> <dbl>          715                  NA
#>  4 5873  2017-09-13 <df>   2569452… <chr> <dbl>          235                  NA
#>  5 5082  2012-11-29 <df>   99666069 <chr> <dbl>          475                  NA
#>  6 708   2012-01-26 <df>   32914110 <chr> <dbl>          475                  NA
#>  7 405   2011-03-17 <df>   148      <chr> <int>           95                  NA
#>  8 30331 2013-12-19 <df>   2606815… <chr> <dbl>          715                  NA
#>  9 993   2012-12-20 <df>   1073435… <chr> <dbl>          715                  NA
#> 10 571   2011-10-28 <df>   16891096 <chr> <dbl>          715                  NA
#> # ℹ 1,193 more rows

# a list of valid currency codes can be retrieved using
# steamkit_enum
steamkit_enum("CurrencyCode", type = "SteamLanguage")
#> # A tibble: 47 × 2
#>    code  desc   
#>    <chr> <fct>  
#>  1 0     Invalid
#>  2 1     USD    
#>  3 2     GBP    
#>  4 3     EUR    
#>  5 4     CHF    
#>  6 5     RUB    
#>  7 6     PLN    
#>  8 7     BRL    
#>  9 8     JPY    
#> 10 9     NOK    
#> # ℹ 37 more rows
…
