Support FAQ — search_support • steamr
…
# get help articles on purchases
search_support("purchase")
#> # A tibble: 103 × 5
#>    articleid           name                      content clan_accountid url_code
#>    <chr>               <chr>                     <chr>            <int> <chr>   
#>  1 8294526361226486046 Purchasing Issues         "Gener…              0 731C-13…
#>  2 5481077739806853445 Steam Sales - Purchasing… "Commo…              0 4C10-B3…
#>  3 2796289223589124788 Retrying a failed purcha… "My pu…              0 26CE-6A…
#>  4 4926790029447666731 Your Purchase could not … "When …              0 445F-79…
#>  5 8604539892456401617 Steam Is Asking Me To Pu… "I bou…              0 7769-77…
#>  6 2059425740868674023 An unexpected error has … "What …              0 1C94-8C…
#>  7 3171155790013657367 Steam Gifts               "What …              0 2C02-35…
#>  8 4656875171981542682 Providing Proof of Owner… "If th…              0 40A0-8B…
#>  9 8201958456624065082 Limited User Accounts     "Steam…              0 71D3-35…
#> 10 8710933858579164505 Steam Wallet              "Steam…              0 78E3-74…
#> # ℹ 93 more rows

# get localized articles in french
search_support("purchase", elanguage = 2)
#> Iterating ■■■■■■■■■■■                       33% | ETA:  2s
#> Iterating ■■■■■■■■■■■■■■■■■■■■■■■■■■■■■■■  100% | ETA:  0s
#> # A tibble: 105 × 6
#>    articleid           name      content clan_accountid url_code localized_names
#>    <chr>               <chr>     <chr>            <int> <chr>    <list>         
#>  1 8294526361226486046 Problème… "Dépan…              0 731C-13… <chr [1]>      
#>  2 5481077739806853445 Promotio… "Quest…              0 4C10-B3… <chr [1]>      
#>  3 2796289223589124788 Effectue… "Mon a…              0 26CE-6A… <chr [1]>      
#>  4 4926790029447666731 Votre tr… "Quand…              0 445F-79… <chr [1]>      
#>  5 8604539892456401617 Steam me… "J'ai …              0 7769-77… <chr [1]>      
#>  6 2059425740868674023 Une erre… "Que f…              0 1C94-8C… <chr [1]>      
#>  7 3171155790013657367 Cadeaux … "Qu'es…              0 2C02-35… <chr [1]>      
#>  8 4656875171981542682 Fournir … "Si le…              0 40A0-8B… <chr [1]>      
#>  9 8201958456624065082 Comptes … "Steam…              0 71D3-35… <chr [1]>      
#> 10 8710933858579164505 Portemon… "Porte…              0 78E3-74… <chr [1]>      
#> # ℹ 95 more rows
…
