Reviews — stf_app_reviews • steamr
…
# get all negative german reviews
stf_app_reviews(
  10,
  language = "german",
  review_type = "negative",
  paginate = TRUE,
  max_pages = Inf
)
#> # A tibble: 44 × 21
#>    recommendationid language review      timestamp_created   timestamp_updated  
#>    <chr>            <chr>    <chr>       <dttm>              <dttm>             
#>  1 170113218        german   "crasht we… 2024-07-17 21:18:21 2024-07-17 21:18:21
#>  2 131167004        german   "I can't s… 2023-01-19 20:40:47 2023-03-06 20:00:48
#>  3 111335072        german   "كنت أرغب … 2022-03-01 22:21:07 2022-03-01 22:21:07
#>  4 97061181         german   "das spiel… 2021-08-06 18:25:54 2021-08-06 18:25:54
#>  5 96281113         german   "Nicht mei… 2021-07-24 08:27:59 2021-07-24 08:27:59
#>  6 81452533         german   "имба"      2020-12-02 09:27:08 2023-09-22 20:05:24
#>  7 79601831         german   "keine lus… 2020-11-21 12:08:06 2020-11-21 12:08:06
#>  8 78492970         german   "To much c… 2020-10-31 23:37:44 2020-10-31 23:37:44
#>  9 67832956         german   "Trash Gam… 2020-04-22 18:57:46 2020-04-22 18:57:46
#> 10 64920573         german   "gaaaaaaaa… 2020-03-12 16:18:01 2020-03-12 16:18:01
#> # ℹ 34 more rows
#> # ℹ 16 more variables: voted_up <lgl>, votes_up <int>, votes_funny <int>,
#> #   weighted_vote_score <dbl>, comment_count <int>, steam_purchase <lgl>,
#> #   received_for_free <lgl>, written_during_early_access <lgl>,
#> #   primarily_steam_deck <lgl>, author.steamid <chr>,
#> #   author.num_games_owned <int>, author.num_reviews <int>,
#> #   author.playtime_forever <int>, author.playtime_last_two_weeks <int>, …
…
(hist <- stf_review_histogram(10)$rollups)
#> # A tibble: 170 × 3
#>    date                recommendations_up recommendations_down
#>    <dttm>                           <int>                <int>
#>  1 2010-11-01 00:00:00                 25                    0
#>  2 2010-12-01 00:00:00                 33                    1
#>  3 2011-01-01 00:00:00                 26                    0
#>  4 2011-02-01 00:00:00                 21                    0
#>  5 2011-03-01 00:00:00                 26                    1
#>  6 2011-04-01 00:00:00                 15                    0
#>  7 2011-05-01 00:00:00                  8                    0
#>  8 2011-06-01 00:00:00                 22                    0
#>  9 2011-07-01 00:00:00                 66                    0
#> 10 2011-08-01 00:00:00                 32                    1
#> # ℹ 160 more rows
…
